{
    "name": "RollbackNetcodeLibrary",
    "rootNamespace": "",
    "references": [
        "GUID:3b8ed52f1b5c64994af4c4e0aa4b6c4b",
        "GUID:1491147abca9d7d4bb7105af628b223e",
        "GUID:ba17593bc25305049975a3a2c9d2e087",
        "GUID:6055be8ebefd69e48b49212b09b47b2f",
        "GUID:75469ad4d38634e559750d17036d5f7c",
        "GUID:d8b63aba1907145bea998dd612889d6b",
        "GUID:737e1c04c3dd3e046bedb5be72aec1d7",
        "GUID:0d0243c226d5dab4fb5d34006a1ad53b",
        "GUID:9f4f5bf029cebb64f983b7bdc29f62a1",
        "GUID:fe4fa159f4a96442ba22af67ddf20c65",
        "GUID:de64d7f9ca85d4bf59c8c24738bc1057",
        "GUID:072b82e2b7c1dcf439827d3fbc4f52a1",
        "GUID:101012598ee9f064da897a34e72947f9"
    ],
    "includePlatforms": [],
    "excludePlatforms": [],
    "allowUnsafeCode": false,
    "overrideReferences": false,
    "precompiledReferences": [],
    "autoReferenced": true,
    "defineConstraints": [],
    "versionDefines": [],
    "noEngineReferences": false
}