%YAML 1.1
%TAG !u! tag:unity3d.com,2011:
--- !u!1 &6262864600512098849
GameObject:
  m_ObjectHideFlags: 0
  m_CorrespondingSourceObject: {fileID: 0}
  m_PrefabInstance: {fileID: 0}
  m_PrefabAsset: {fileID: 0}
  serializedVersion: 6
  m_Component:
  - component: {fileID: 6262864600512098860}
  - component: {fileID: 6262864600512098850}
  - component: {fileID: 260704091}
  m_Layer: 0
  m_Name: NetworkManager
  m_TagString: Untagged
  m_Icon: {fileID: 0}
  m_NavMeshLayer: 0
  m_StaticEditorFlags: 0
  m_IsActive: 1
--- !u!4 &6262864600512098860
Transform:
  m_ObjectHideFlags: 0
  m_CorrespondingSourceObject: {fileID: 0}
  m_PrefabInstance: {fileID: 0}
  m_PrefabAsset: {fileID: 0}
  m_GameObject: {fileID: 6262864600512098849}
  m_LocalRotation: {x: 0, y: 0, z: 0, w: 1}
  m_LocalPosition: {x: 0, y: 0, z: 0}
  m_LocalScale: {x: 1, y: 1, z: 1}
  m_ConstrainProportionsScale: 0
  m_Children: []
  m_Father: {fileID: 0}
  m_RootOrder: 0
  m_LocalEulerAnglesHint: {x: 0, y: 0, z: 0}
--- !u!114 &6262864600512098850
MonoBehaviour:
  m_ObjectHideFlags: 0
  m_CorrespondingSourceObject: {fileID: 0}
  m_PrefabInstance: {fileID: 0}
  m_PrefabAsset: {fileID: 0}
  m_GameObject: {fileID: 6262864600512098849}
  m_Enabled: 1
  m_EditorHideFlags: 0
  m_Script: {fileID: 11500000, guid: b84c2d8dfe509a34fb59e2b81f8e1319, type: 3}
  m_Name: 
  m_EditorClassIdentifier: 
  MessageBufferSize: 5120
  MaxConnections: 100
  MaxSentMessageQueueSize: 128
  ConnectAddress: 127.0.0.1
  ConnectPort: 7777
  ServerListenPort: 7777
  MessageSendMode: 0
--- !u!114 &260704091
MonoBehaviour:
  m_ObjectHideFlags: 0
  m_CorrespondingSourceObject: {fileID: 0}
  m_PrefabInstance: {fileID: 0}
  m_PrefabAsset: {fileID: 0}
  m_GameObject: {fileID: 6262864600512098849}
  m_Enabled: 1
  m_EditorHideFlags: 0
  m_Script: {fileID: 11500000, guid: a90fa1bc601bdd6479843994eee70ea2, type: 3}
  m_Name: 
  m_EditorClassIdentifier: 
  RunInBackground: 1
  LogLevel: 1
  NetworkConfig:
    ProtocolVersion: 0
    NetworkTransport: {fileID: 6262864600512098850}
    PlayerPrefab: {fileID: 4559898203721171582, guid: 69fdb0dadbabb7b49ab8076443643931, type: 3}
    NetworkPrefabs:
    - Override: 0
      Prefab: {fileID: 2745639226650904228, guid: e472c4235c4361148bbede7b688dd461, type: 3}
      SourcePrefabToOverride: {fileID: 0}
      SourceHashToOverride: 0
      OverridingTargetPrefab: {fileID: 0}
    - Override: 0
      Prefab: {fileID: 4559898203721171582, guid: 69fdb0dadbabb7b49ab8076443643931, type: 3}
      SourcePrefabToOverride: {fileID: 0}
      SourceHashToOverride: 0
      OverridingTargetPrefab: {fileID: 0}
    - Override: 0
      Prefab: {fileID: 2228547180010733037, guid: 9fdf6878ec90c6943ae556b307ed1602, type: 3}
      SourcePrefabToOverride: {fileID: 0}
      SourceHashToOverride: 0
      OverridingTargetPrefab: {fileID: 0}
    - Override: 0
      Prefab: {fileID: 6877984104047068774, guid: 9c17a6fd560dfb84fa5db30ccb2fbbd9, type: 3}
      SourcePrefabToOverride: {fileID: 0}
      SourceHashToOverride: 0
      OverridingTargetPrefab: {fileID: 0}
    TickRate: 60
    ClientConnectionBufferTimeout: 10
    ConnectionApproval: 0
    ConnectionData: 
    EnableTimeResync: 0
    TimeResyncInterval: 30
    EnsureNetworkVariableLengthSafety: 0
    EnableSceneManagement: 1
    ForceSamePrefabs: 1
    RecycleNetworkIds: 1
    NetworkIdRecycleDelay: 120
    RpcHashSize: 0
    LoadSceneTimeOut: 120
    MessageBufferTimeout: 20
    EnableNetworkLogs: 1
  numberOfPlayers: 2
  networkStats: {fileID: 0}
