%YAML 1.1
%TAG !u! tag:unity3d.com,2011:
--- !u!1 &4692360622170627986
GameObject:
  m_ObjectHideFlags: 0
  m_CorrespondingSourceObject: {fileID: 0}
  m_PrefabInstance: {fileID: 0}
  m_PrefabAsset: {fileID: 0}
  serializedVersion: 6
  m_Component:
  - component: {fileID: 4692360622170627983}
  - component: {fileID: 4692360622170627980}
  - component: {fileID: 4692360622170627981}
  m_Layer: 0
  m_Name: RollbackLogic
  m_TagString: Untagged
  m_Icon: {fileID: 0}
  m_NavMeshLayer: 0
  m_StaticEditorFlags: 0
  m_IsActive: 1
--- !u!4 &4692360622170627983
Transform:
  m_ObjectHideFlags: 0
  m_CorrespondingSourceObject: {fileID: 0}
  m_PrefabInstance: {fileID: 0}
  m_PrefabAsset: {fileID: 0}
  m_GameObject: {fileID: 4692360622170627986}
  m_LocalRotation: {x: 0, y: 0, z: 0, w: 1}
  m_LocalPosition: {x: 0, y: 0, z: 0}
  m_LocalScale: {x: 1, y: 1, z: 1}
  m_ConstrainProportionsScale: 0
  m_Children: []
  m_Father: {fileID: 0}
  m_RootOrder: 11
  m_LocalEulerAnglesHint: {x: 0, y: 0, z: 0}
--- !u!114 &4692360622170627980
MonoBehaviour:
  m_ObjectHideFlags: 0
  m_CorrespondingSourceObject: {fileID: 0}
  m_PrefabInstance: {fileID: 0}
  m_PrefabAsset: {fileID: 0}
  m_GameObject: {fileID: 4692360622170627986}
  m_Enabled: 1
  m_EditorHideFlags: 0
  m_Script: {fileID: 11500000, guid: 45fe17e5aa75ac54190bccd300234e9f, type: 3}
  m_Name: 
  m_EditorClassIdentifier: 
  playerInThisMachine: 0
  MAX_ROLLBACK_FRAMES: 7
  FRAME_ADVANTAGE_LIMIT: 8
  numberOfPlayers: 2
  players: []
  isServer: 0
  clientTickNumber: 0
  remoteFrame: 0
  localFrame: 0
  lastSyncFrame: 0
  remoteFrameAdvantage: 0
  inRollback: 0
  latestReceivedRemoteFrame: 0
  inputDelay: 30
  fixedUpdateEvent:
    m_PersistentCalls:
      m_Calls: []
  inputManager: {fileID: -944628639613478452, guid: 850f2abf96f79b647b6ce1e53bc60fa4, type: 3}
  forceFrameSending: 1
  currentFrameCountText: {fileID: 0}
  recordedInputs: []
  frameToStartReplay: 2000
  isPaused: 0
  foundUnsyncInput: 0
--- !u!114 &4692360622170627981
MonoBehaviour:
  m_ObjectHideFlags: 0
  m_CorrespondingSourceObject: {fileID: 0}
  m_PrefabInstance: {fileID: 0}
  m_PrefabAsset: {fileID: 0}
  m_GameObject: {fileID: 4692360622170627986}
  m_Enabled: 1
  m_EditorHideFlags: 0
  m_Script: {fileID: 11500000, guid: d5a57f767e5e46a458fc5d3c628d0cbb, type: 3}
  m_Name: 
  m_EditorClassIdentifier: 
  GlobalObjectIdHash: 951099334
  AlwaysReplicateAsRoot: 0
  DontDestroyWithOwner: 0
  AutoObjectParentSync: 1
