{
    "name": "InputExample",
    "maps": [
        {
            "name": "Player",
            "id": "5bd9a991-aa1b-495d-9333-d3b97c8fa43c",
            "actions": [
                {
                    "name": "MovePlayer",
                    "type": "Value",
                    "id": "5edb4d71-cd7b-43a6-9c40-395ed22fe4f4",
                    "expectedControlType": "Vector2",
                    "processors": "",
                    "interactions": "",
                    "initialStateCheck": true
                }
            ],
            "bindings": [
                {
                    "name": "2D Vector",
                    "id": "5369065c-d25f-47e6-9288-82bd0e3f0ce6",
                    "path": "2DVector",
                    "interactions": "",
                    "processors": "",
                    "groups": "",
                    "action": "MovePlayer",
                    "isComposite": true,
                    "isPartOfComposite": false
                },
                {
                    "name": "up",
                    "id": "34027cab-6413-4e5b-8997-475e0c12a793",
                    "path": "<Keyboard>/w",
                    "interactions": "",
                    "processors": "",
                    "groups": "WASD",
                    "action": "MovePlayer",
                    "isComposite": false,
                    "isPartOfComposite": true
                },
                {
                    "name": "down",
                    "id": "9c1dd3bd-583b-47c7-9d6b-c5ca45c4f597",
                    "path": "<Keyboard>/s",
                    "interactions": "",
                    "processors": "",
                    "groups": "WASD",
                    "action": "MovePlayer",
                    "isComposite": false,
                    "isPartOfComposite": true
                },
                {
                    "name": "left",
                    "id": "26b178df-cc52-491b-ad7b-c03c835e56be",
                    "path": "<Keyboard>/a",
                    "interactions": "",
                    "processors": "",
                    "groups": "WASD",
                    "action": "MovePlayer",
                    "isComposite": false,
                    "isPartOfComposite": true
                },
                {
                    "name": "right",
                    "id": "a7fbda28-0e36-46cb-8d01-65ead8d2a83d",
                    "path": "<Keyboard>/d",
                    "interactions": "",
                    "processors": "",
                    "groups": "WASD",
                    "action": "MovePlayer",
                    "isComposite": false,
                    "isPartOfComposite": true
                }
            ]
        }
    ],
    "controlSchemes": [
        {
            "name": "WASD",
            "bindingGroup": "WASD",
            "devices": [
                {
                    "devicePath": "<Keyboard>",
                    "isOptional": false,
                    "isOR": false
                }
            ]
        }
    ]
}