%YAML 1.1
%TAG !u! tag:unity3d.com,2011:
--- !u!114 &11400000
MonoBehaviour:
  m_ObjectHideFlags: 0
  m_CorrespondingSourceObject: {fileID: 0}
  m_PrefabInstance: {fileID: 0}
  m_PrefabAsset: {fileID: 0}
  m_GameObject: {fileID: 0}
  m_Enabled: 1
  m_EditorHideFlags: 0
  m_Script: {fileID: 11500000, guid: c394b88fbe4a38e4388d3d58464a035c, type: 3}
  m_Name: 1Input
  m_EditorClassIdentifier: 
  inputs:
  - id: 0
    simpleStates:
    - {fileID: 0}
    - {fileID: 0}
    objectsWithAutority:
    - {fileID: 0}
    - {fileID: 0}
    thisClientInputsOrdered:
    - inputs:
      - actionName: MovePlayer
        phase: 2
        expectedControlType: Vector2
        valueAsVector2: {x: -1, y: 0}
        valueAsAButton: 0
        currentControlType: 1
        targetFrame: 497
      - actionName: MovePlayer
        phase: 3
        expectedControlType: Vector2
        valueAsVector2: {x: -1, y: 0}
        valueAsAButton: 0
        currentControlType: 1
        targetFrame: 497
      frameWhereWasPerformed: 497
      tickNumber: 508
      hasBeenProcessed: 0
    - inputs:
      - actionName: MovePlayer
        phase: 4
        expectedControlType: Vector2
        valueAsVector2: {x: 0, y: 0}
        valueAsAButton: 0
        currentControlType: 1
        targetFrame: 586
      frameWhereWasPerformed: 586
      tickNumber: 597
      hasBeenProcessed: 0
  - id: 0
    simpleStates:
    - {fileID: 0}
    - {fileID: 0}
    objectsWithAutority:
    - {fileID: 0}
    - {fileID: 0}
    thisClientInputsOrdered: []
