%YAML 1.1
%TAG !u! tag:unity3d.com,2011:
--- !u!114 &11400000
MonoBehaviour:
  m_ObjectHideFlags: 0
  m_CorrespondingSourceObject: {fileID: 0}
  m_PrefabInstance: {fileID: 0}
  m_PrefabAsset: {fileID: 0}
  m_GameObject: {fileID: 0}
  m_Enabled: 1
  m_EditorHideFlags: 0
  m_Script: {fileID: 11500000, guid: c394b88fbe4a38e4388d3d58464a035c, type: 3}
  m_Name: DesyncInputs
  m_EditorClassIdentifier: 
  inputs:
  - id: 0
    simpleStates:
    - {fileID: 0}
    - {fileID: 0}
    objectsWithAutority:
    - {fileID: 0}
    - {fileID: 0}
    thisClientInputsOrdered:
    - inputs:
      - actionName: MovePlayer
        phase: 2
        expectedControlType: Vector2
        valueAsVector2: {x: 0, y: -1}
        valueAsAButton: 0
        currentControlType: 1
        targetFrame: 115
      - actionName: MovePlayer
        phase: 3
        expectedControlType: Vector2
        valueAsVector2: {x: 0, y: -1}
        valueAsAButton: 0
        currentControlType: 1
        targetFrame: 115
      frameWhereWasPerformed: 115
      tickNumber: 257
      hasBeenProcessed: 0
    - inputs:
      - actionName: MovePlayer
        phase: 4
        expectedControlType: Vector2
        valueAsVector2: {x: 0, y: 0}
        valueAsAButton: 0
        currentControlType: 1
        targetFrame: 181
      frameWhereWasPerformed: 181
      tickNumber: 322
      hasBeenProcessed: 0
    - inputs:
      - actionName: MovePlayer
        phase: 2
        expectedControlType: Vector2
        valueAsVector2: {x: 1, y: 0}
        valueAsAButton: 0
        currentControlType: 1
        targetFrame: 183
      - actionName: MovePlayer
        phase: 3
        expectedControlType: Vector2
        valueAsVector2: {x: 1, y: 0}
        valueAsAButton: 0
        currentControlType: 1
        targetFrame: 183
      frameWhereWasPerformed: 183
      tickNumber: 325
      hasBeenProcessed: 0
    - inputs:
      - actionName: MovePlayer
        phase: 3
        expectedControlType: Vector2
        valueAsVector2: {x: 0.707107, y: 0.707107}
        valueAsAButton: 0
        currentControlType: 1
        targetFrame: 188
      frameWhereWasPerformed: 188
      tickNumber: 330
      hasBeenProcessed: 0
    - inputs:
      - actionName: MovePlayer
        phase: 3
        expectedControlType: Vector2
        valueAsVector2: {x: 1, y: 0}
        valueAsAButton: 0
        currentControlType: 1
        targetFrame: 250
      frameWhereWasPerformed: 250
      tickNumber: 392
      hasBeenProcessed: 0
    - inputs:
      - actionName: MovePlayer
        phase: 4
        expectedControlType: Vector2
        valueAsVector2: {x: 0, y: 0}
        valueAsAButton: 0
        currentControlType: 1
        targetFrame: 253
      frameWhereWasPerformed: 253
      tickNumber: 395
      hasBeenProcessed: 0
    - inputs:
      - actionName: MovePlayer
        phase: 2
        expectedControlType: Vector2
        valueAsVector2: {x: -1, y: 0}
        valueAsAButton: 0
        currentControlType: 1
        targetFrame: 256
      - actionName: MovePlayer
        phase: 3
        expectedControlType: Vector2
        valueAsVector2: {x: -1, y: 0}
        valueAsAButton: 0
        currentControlType: 1
        targetFrame: 256
      frameWhereWasPerformed: 256
      tickNumber: 398
      hasBeenProcessed: 0
    - inputs:
      - actionName: MovePlayer
        phase: 4
        expectedControlType: Vector2
        valueAsVector2: {x: 0, y: 0}
        valueAsAButton: 0
        currentControlType: 1
        targetFrame: 271
      frameWhereWasPerformed: 271
      tickNumber: 413
      hasBeenProcessed: 0
    - inputs:
      - actionName: MovePlayer
        phase: 2
        expectedControlType: Vector2
        valueAsVector2: {x: 1, y: 0}
        valueAsAButton: 0
        currentControlType: 1
        targetFrame: 360
      - actionName: MovePlayer
        phase: 3
        expectedControlType: Vector2
        valueAsVector2: {x: 1, y: 0}
        valueAsAButton: 0
        currentControlType: 1
        targetFrame: 360
      frameWhereWasPerformed: 360
      tickNumber: 504
      hasBeenProcessed: 0
    - inputs:
      - actionName: MovePlayer
        phase: 4
        expectedControlType: Vector2
        valueAsVector2: {x: 0, y: 0}
        valueAsAButton: 0
        currentControlType: 1
        targetFrame: 372
      frameWhereWasPerformed: 372
      tickNumber: 516
      hasBeenProcessed: 0
    - inputs:
      - actionName: MovePlayer
        phase: 2
        expectedControlType: Vector2
        valueAsVector2: {x: -1, y: 0}
        valueAsAButton: 0
        currentControlType: 1
        targetFrame: 381
      - actionName: MovePlayer
        phase: 3
        expectedControlType: Vector2
        valueAsVector2: {x: -1, y: 0}
        valueAsAButton: 0
        currentControlType: 1
        targetFrame: 381
      frameWhereWasPerformed: 381
      tickNumber: 525
      hasBeenProcessed: 0
    - inputs:
      - actionName: MovePlayer
        phase: 4
        expectedControlType: Vector2
        valueAsVector2: {x: 0, y: 0}
        valueAsAButton: 0
        currentControlType: 1
        targetFrame: 455
      frameWhereWasPerformed: 455
      tickNumber: 599
      hasBeenProcessed: 0
    - inputs:
      - actionName: MovePlayer
        phase: 2
        expectedControlType: Vector2
        valueAsVector2: {x: 1, y: 0}
        valueAsAButton: 0
        currentControlType: 1
        targetFrame: 461
      - actionName: MovePlayer
        phase: 3
        expectedControlType: Vector2
        valueAsVector2: {x: 1, y: 0}
        valueAsAButton: 0
        currentControlType: 1
        targetFrame: 461
      frameWhereWasPerformed: 461
      tickNumber: 605
      hasBeenProcessed: 0
    - inputs:
      - actionName: MovePlayer
        phase: 3
        expectedControlType: Vector2
        valueAsVector2: {x: 0.707107, y: -0.707107}
        valueAsAButton: 0
        currentControlType: 1
        targetFrame: 494
      frameWhereWasPerformed: 494
      tickNumber: 638
      hasBeenProcessed: 0
    - inputs:
      - actionName: MovePlayer
        phase: 3
        expectedControlType: Vector2
        valueAsVector2: {x: 0, y: -1}
        valueAsAButton: 0
        currentControlType: 1
        targetFrame: 502
      frameWhereWasPerformed: 502
      tickNumber: 646
      hasBeenProcessed: 0
    - inputs:
      - actionName: MovePlayer
        phase: 3
        expectedControlType: Vector2
        valueAsVector2: {x: -0.707107, y: -0.707107}
        valueAsAButton: 0
        currentControlType: 1
        targetFrame: 537
      frameWhereWasPerformed: 537
      tickNumber: 681
      hasBeenProcessed: 0
    - inputs:
      - actionName: MovePlayer
        phase: 3
        expectedControlType: Vector2
        valueAsVector2: {x: 0, y: -1}
        valueAsAButton: 0
        currentControlType: 1
        targetFrame: 576
      frameWhereWasPerformed: 576
      tickNumber: 720
      hasBeenProcessed: 0
    - inputs:
      - actionName: MovePlayer
        phase: 4
        expectedControlType: Vector2
        valueAsVector2: {x: 0, y: 0}
        valueAsAButton: 0
        currentControlType: 1
        targetFrame: 578
      frameWhereWasPerformed: 578
      tickNumber: 722
      hasBeenProcessed: 0
    - inputs:
      - actionName: MovePlayer
        phase: 2
        expectedControlType: Vector2
        valueAsVector2: {x: 1, y: 0}
        valueAsAButton: 0
        currentControlType: 1
        targetFrame: 653
      - actionName: MovePlayer
        phase: 3
        expectedControlType: Vector2
        valueAsVector2: {x: 1, y: 0}
        valueAsAButton: 0
        currentControlType: 1
        targetFrame: 653
      frameWhereWasPerformed: 653
      tickNumber: 797
      hasBeenProcessed: 0
    - inputs:
      - actionName: MovePlayer
        phase: 4
        expectedControlType: Vector2
        valueAsVector2: {x: 0, y: 0}
        valueAsAButton: 0
        currentControlType: 1
        targetFrame: 665
      frameWhereWasPerformed: 665
      tickNumber: 809
      hasBeenProcessed: 0
    - inputs:
      - actionName: MovePlayer
        phase: 2
        expectedControlType: Vector2
        valueAsVector2: {x: -1, y: 0}
        valueAsAButton: 0
        currentControlType: 1
        targetFrame: 666
      - actionName: MovePlayer
        phase: 3
        expectedControlType: Vector2
        valueAsVector2: {x: -1, y: 0}
        valueAsAButton: 0
        currentControlType: 1
        targetFrame: 666
      frameWhereWasPerformed: 666
      tickNumber: 810
      hasBeenProcessed: 0
    - inputs:
      - actionName: MovePlayer
        phase: 3
        expectedControlType: Vector2
        valueAsVector2: {x: -0.707107, y: -0.707107}
        valueAsAButton: 0
        currentControlType: 1
        targetFrame: 694
      frameWhereWasPerformed: 694
      tickNumber: 837
      hasBeenProcessed: 0
    - inputs:
      - actionName: MovePlayer
        phase: 3
        expectedControlType: Vector2
        valueAsVector2: {x: 0, y: -1}
        valueAsAButton: 0
        currentControlType: 1
        targetFrame: 700
      frameWhereWasPerformed: 700
      tickNumber: 844
      hasBeenProcessed: 0
    - inputs:
      - actionName: MovePlayer
        phase: 3
        expectedControlType: Vector2
        valueAsVector2: {x: 0.707107, y: -0.707107}
        valueAsAButton: 0
        currentControlType: 1
        targetFrame: 728
      frameWhereWasPerformed: 728
      tickNumber: 872
      hasBeenProcessed: 0
    - inputs:
      - actionName: MovePlayer
        phase: 3
        expectedControlType: Vector2
        valueAsVector2: {x: 1, y: 0}
        valueAsAButton: 0
        currentControlType: 1
        targetFrame: 735
      frameWhereWasPerformed: 735
      tickNumber: 879
      hasBeenProcessed: 0
    - inputs:
      - actionName: MovePlayer
        phase: 3
        expectedControlType: Vector2
        valueAsVector2: {x: 0.707107, y: 0.707107}
        valueAsAButton: 0
        currentControlType: 1
        targetFrame: 751
      frameWhereWasPerformed: 751
      tickNumber: 895
      hasBeenProcessed: 0
    - inputs:
      - actionName: MovePlayer
        phase: 3
        expectedControlType: Vector2
        valueAsVector2: {x: 1, y: 0}
        valueAsAButton: 0
        currentControlType: 1
        targetFrame: 788
      frameWhereWasPerformed: 788
      tickNumber: 932
      hasBeenProcessed: 0
    - inputs:
      - actionName: MovePlayer
        phase: 3
        expectedControlType: Vector2
        valueAsVector2: {x: 0.707107, y: -0.707107}
        valueAsAButton: 0
        currentControlType: 1
        targetFrame: 798
      - actionName: MovePlayer
        phase: 3
        expectedControlType: Vector2
        valueAsVector2: {x: 0, y: -1}
        valueAsAButton: 0
        currentControlType: 1
        targetFrame: 798
      frameWhereWasPerformed: 798
      tickNumber: 942
      hasBeenProcessed: 0
    - inputs:
      - actionName: MovePlayer
        phase: 3
        expectedControlType: Vector2
        valueAsVector2: {x: -0.707107, y: -0.707107}
        valueAsAButton: 0
        currentControlType: 1
        targetFrame: 863
      frameWhereWasPerformed: 863
      tickNumber: 1007
      hasBeenProcessed: 0
    - inputs:
      - actionName: MovePlayer
        phase: 3
        expectedControlType: Vector2
        valueAsVector2: {x: -1, y: 0}
        valueAsAButton: 0
        currentControlType: 1
        targetFrame: 866
      frameWhereWasPerformed: 866
      tickNumber: 1010
      hasBeenProcessed: 0
    - inputs:
      - actionName: MovePlayer
        phase: 4
        expectedControlType: Vector2
        valueAsVector2: {x: 0, y: 0}
        valueAsAButton: 0
        currentControlType: 1
        targetFrame: 897
      frameWhereWasPerformed: 897
      tickNumber: 1041
      hasBeenProcessed: 0
    - inputs:
      - actionName: MovePlayer
        phase: 2
        expectedControlType: Vector2
        valueAsVector2: {x: 1, y: 0}
        valueAsAButton: 0
        currentControlType: 1
        targetFrame: 902
      - actionName: MovePlayer
        phase: 3
        expectedControlType: Vector2
        valueAsVector2: {x: 1, y: 0}
        valueAsAButton: 0
        currentControlType: 1
        targetFrame: 902
      frameWhereWasPerformed: 902
      tickNumber: 1046
      hasBeenProcessed: 0
    - inputs:
      - actionName: MovePlayer
        phase: 4
        expectedControlType: Vector2
        valueAsVector2: {x: 0, y: 0}
        valueAsAButton: 0
        currentControlType: 1
        targetFrame: 923
      frameWhereWasPerformed: 923
      tickNumber: 1067
      hasBeenProcessed: 0
    - inputs:
      - actionName: MovePlayer
        phase: 2
        expectedControlType: Vector2
        valueAsVector2: {x: 0, y: 1}
        valueAsAButton: 0
        currentControlType: 1
        targetFrame: 1010
      - actionName: MovePlayer
        phase: 3
        expectedControlType: Vector2
        valueAsVector2: {x: 0, y: 1}
        valueAsAButton: 0
        currentControlType: 1
        targetFrame: 1010
      frameWhereWasPerformed: 1010
      tickNumber: 1154
      hasBeenProcessed: 0
    - inputs:
      - actionName: MovePlayer
        phase: 3
        expectedControlType: Vector2
        valueAsVector2: {x: 0.707107, y: 0.707107}
        valueAsAButton: 0
        currentControlType: 1
        targetFrame: 1075
      frameWhereWasPerformed: 1075
      tickNumber: 1219
      hasBeenProcessed: 0
    - inputs:
      - actionName: MovePlayer
        phase: 3
        expectedControlType: Vector2
        valueAsVector2: {x: 1, y: 0}
        valueAsAButton: 0
        currentControlType: 1
        targetFrame: 1078
      frameWhereWasPerformed: 1078
      tickNumber: 1222
      hasBeenProcessed: 0
    - inputs:
      - actionName: MovePlayer
        phase: 3
        expectedControlType: Vector2
        valueAsVector2: {x: 0.707107, y: -0.707107}
        valueAsAButton: 0
        currentControlType: 1
        targetFrame: 1098
      frameWhereWasPerformed: 1098
      tickNumber: 1242
      hasBeenProcessed: 0
    - inputs:
      - actionName: MovePlayer
        phase: 3
        expectedControlType: Vector2
        valueAsVector2: {x: 0, y: -1}
        valueAsAButton: 0
        currentControlType: 1
        targetFrame: 1135
      frameWhereWasPerformed: 1135
      tickNumber: 1279
      hasBeenProcessed: 0
    - inputs:
      - actionName: MovePlayer
        phase: 3
        expectedControlType: Vector2
        valueAsVector2: {x: -0.707107, y: -0.707107}
        valueAsAButton: 0
        currentControlType: 1
        targetFrame: 1172
      frameWhereWasPerformed: 1172
      tickNumber: 1316
      hasBeenProcessed: 0
    - inputs:
      - actionName: MovePlayer
        phase: 3
        expectedControlType: Vector2
        valueAsVector2: {x: -1, y: 0}
        valueAsAButton: 0
        currentControlType: 1
        targetFrame: 1174
      frameWhereWasPerformed: 1174
      tickNumber: 1318
      hasBeenProcessed: 0
    - inputs:
      - actionName: MovePlayer
        phase: 4
        expectedControlType: Vector2
        valueAsVector2: {x: 0, y: 0}
        valueAsAButton: 0
        currentControlType: 1
        targetFrame: 1197
      frameWhereWasPerformed: 1197
      tickNumber: 1341
      hasBeenProcessed: 0
    - inputs:
      - actionName: MovePlayer
        phase: 2
        expectedControlType: Vector2
        valueAsVector2: {x: 1, y: 0}
        valueAsAButton: 0
        currentControlType: 1
        targetFrame: 1807
      - actionName: MovePlayer
        phase: 3
        expectedControlType: Vector2
        valueAsVector2: {x: 1, y: 0}
        valueAsAButton: 0
        currentControlType: 1
        targetFrame: 1807
      frameWhereWasPerformed: 1807
      tickNumber: 1951
      hasBeenProcessed: 0
    - inputs:
      - actionName: MovePlayer
        phase: 4
        expectedControlType: Vector2
        valueAsVector2: {x: 0, y: 0}
        valueAsAButton: 0
        currentControlType: 1
        targetFrame: 1843
      frameWhereWasPerformed: 1843
      tickNumber: 1987
      hasBeenProcessed: 0
    - inputs:
      - actionName: MovePlayer
        phase: 2
        expectedControlType: Vector2
        valueAsVector2: {x: -1, y: 0}
        valueAsAButton: 0
        currentControlType: 1
        targetFrame: 1847
      - actionName: MovePlayer
        phase: 3
        expectedControlType: Vector2
        valueAsVector2: {x: -1, y: 0}
        valueAsAButton: 0
        currentControlType: 1
        targetFrame: 1847
      frameWhereWasPerformed: 1847
      tickNumber: 1991
      hasBeenProcessed: 0
    - inputs:
      - actionName: MovePlayer
        phase: 3
        expectedControlType: Vector2
        valueAsVector2: {x: -0.707107, y: -0.707107}
        valueAsAButton: 0
        currentControlType: 1
        targetFrame: 1853
      frameWhereWasPerformed: 1853
      tickNumber: 1997
      hasBeenProcessed: 0
    - inputs:
      - actionName: MovePlayer
        phase: 3
        expectedControlType: Vector2
        valueAsVector2: {x: 0, y: -1}
        valueAsAButton: 0
        currentControlType: 1
        targetFrame: 1856
      frameWhereWasPerformed: 1856
      tickNumber: 2000
      hasBeenProcessed: 0
    - inputs:
      - actionName: MovePlayer
        phase: 4
        expectedControlType: Vector2
        valueAsVector2: {x: 0, y: 0}
        valueAsAButton: 0
        currentControlType: 1
        targetFrame: 1863
      frameWhereWasPerformed: 1863
      tickNumber: 2007
      hasBeenProcessed: 0
  - id: 1
    simpleStates:
    - {fileID: 0}
    - {fileID: 0}
    objectsWithAutority:
    - {fileID: 0}
    - {fileID: 0}
    thisClientInputsOrdered:
    - inputs:
      - actionName: MovePlayer
        phase: 2
        expectedControlType: Vector2
        valueAsVector2: {x: -1, y: 0}
        valueAsAButton: 0
        currentControlType: 1
        targetFrame: 277
      - actionName: MovePlayer
        phase: 3
        expectedControlType: Vector2
        valueAsVector2: {x: -1, y: 0}
        valueAsAButton: 0
        currentControlType: 1
        targetFrame: 277
      frameWhereWasPerformed: 277
      tickNumber: 432
      hasBeenProcessed: 0
    - inputs:
      - actionName: MovePlayer
        phase: 4
        expectedControlType: Vector2
        valueAsVector2: {x: 0, y: 0}
        valueAsAButton: 0
        currentControlType: 1
        targetFrame: 298
      frameWhereWasPerformed: 298
      tickNumber: 453
      hasBeenProcessed: 0
    - inputs:
      - actionName: MovePlayer
        phase: 2
        expectedControlType: Vector2
        valueAsVector2: {x: 1, y: 0}
        valueAsAButton: 0
        currentControlType: 1
        targetFrame: 300
      - actionName: MovePlayer
        phase: 3
        expectedControlType: Vector2
        valueAsVector2: {x: 1, y: 0}
        valueAsAButton: 0
        currentControlType: 1
        targetFrame: 300
      frameWhereWasPerformed: 300
      tickNumber: 455
      hasBeenProcessed: 0
    - inputs:
      - actionName: MovePlayer
        phase: 4
        expectedControlType: Vector2
        valueAsVector2: {x: 0, y: 0}
        valueAsAButton: 0
        currentControlType: 1
        targetFrame: 357
      frameWhereWasPerformed: 357
      tickNumber: 512
      hasBeenProcessed: 0
    - inputs:
      - actionName: MovePlayer
        phase: 2
        expectedControlType: Vector2
        valueAsVector2: {x: -1, y: 0}
        valueAsAButton: 0
        currentControlType: 1
        targetFrame: 929
      - actionName: MovePlayer
        phase: 3
        expectedControlType: Vector2
        valueAsVector2: {x: -1, y: 0}
        valueAsAButton: 0
        currentControlType: 1
        targetFrame: 929
      frameWhereWasPerformed: 929
      tickNumber: 1076
      hasBeenProcessed: 0
    - inputs:
      - actionName: MovePlayer
        phase: 3
        expectedControlType: Vector2
        valueAsVector2: {x: -0.707107, y: -0.707107}
        valueAsAButton: 0
        currentControlType: 1
        targetFrame: 939
      frameWhereWasPerformed: 939
      tickNumber: 1086
      hasBeenProcessed: 0
    - inputs:
      - actionName: MovePlayer
        phase: 3
        expectedControlType: Vector2
        valueAsVector2: {x: 0, y: -1}
        valueAsAButton: 0
        currentControlType: 1
        targetFrame: 940
      frameWhereWasPerformed: 940
      tickNumber: 1087
      hasBeenProcessed: 0
    - inputs:
      - actionName: MovePlayer
        phase: 4
        expectedControlType: Vector2
        valueAsVector2: {x: 0, y: 0}
        valueAsAButton: 0
        currentControlType: 1
        targetFrame: 1006
      frameWhereWasPerformed: 1006
      tickNumber: 1153
      hasBeenProcessed: 0
    - inputs:
      - actionName: MovePlayer
        phase: 2
        expectedControlType: Vector2
        valueAsVector2: {x: 0, y: 1}
        valueAsAButton: 0
        currentControlType: 1
        targetFrame: 1209
      - actionName: MovePlayer
        phase: 3
        expectedControlType: Vector2
        valueAsVector2: {x: 0, y: 1}
        valueAsAButton: 0
        currentControlType: 1
        targetFrame: 1209
      frameWhereWasPerformed: 1209
      tickNumber: 1355
      hasBeenProcessed: 0
    - inputs:
      - actionName: MovePlayer
        phase: 3
        expectedControlType: Vector2
        valueAsVector2: {x: 0.707107, y: 0.707107}
        valueAsAButton: 0
        currentControlType: 1
        targetFrame: 1228
      frameWhereWasPerformed: 1228
      tickNumber: 1374
      hasBeenProcessed: 0
    - inputs:
      - actionName: MovePlayer
        phase: 3
        expectedControlType: Vector2
        valueAsVector2: {x: 0, y: 1}
        valueAsAButton: 0
        currentControlType: 1
        targetFrame: 1229
      frameWhereWasPerformed: 1229
      tickNumber: 1375
      hasBeenProcessed: 0
    - inputs:
      - actionName: MovePlayer
        phase: 3
        expectedControlType: Vector2
        valueAsVector2: {x: 0.707107, y: 0.707107}
        valueAsAButton: 0
        currentControlType: 1
        targetFrame: 1242
      frameWhereWasPerformed: 1242
      tickNumber: 1388
      hasBeenProcessed: 0
    - inputs:
      - actionName: MovePlayer
        phase: 3
        expectedControlType: Vector2
        valueAsVector2: {x: 1, y: 0}
        valueAsAButton: 0
        currentControlType: 1
        targetFrame: 1262
      frameWhereWasPerformed: 1262
      tickNumber: 1408
      hasBeenProcessed: 0
    - inputs:
      - actionName: MovePlayer
        phase: 3
        expectedControlType: Vector2
        valueAsVector2: {x: 0.707107, y: -0.707107}
        valueAsAButton: 0
        currentControlType: 1
        targetFrame: 1292
      frameWhereWasPerformed: 1292
      tickNumber: 1438
      hasBeenProcessed: 0
    - inputs:
      - actionName: MovePlayer
        phase: 3
        expectedControlType: Vector2
        valueAsVector2: {x: 0, y: -1}
        valueAsAButton: 0
        currentControlType: 1
        targetFrame: 1314
      frameWhereWasPerformed: 1314
      tickNumber: 1459
      hasBeenProcessed: 0
    - inputs:
      - actionName: MovePlayer
        phase: 3
        expectedControlType: Vector2
        valueAsVector2: {x: -0.707107, y: -0.707107}
        valueAsAButton: 0
        currentControlType: 1
        targetFrame: 1323
      frameWhereWasPerformed: 1323
      tickNumber: 1468
      hasBeenProcessed: 0
    - inputs:
      - actionName: MovePlayer
        phase: 3
        expectedControlType: Vector2
        valueAsVector2: {x: -1, y: 0}
        valueAsAButton: 0
        currentControlType: 1
        targetFrame: 1325
      frameWhereWasPerformed: 1325
      tickNumber: 1470
      hasBeenProcessed: 0
    - inputs:
      - actionName: MovePlayer
        phase: 4
        expectedControlType: Vector2
        valueAsVector2: {x: 0, y: 0}
        valueAsAButton: 0
        currentControlType: 1
        targetFrame: 1387
      frameWhereWasPerformed: 1387
      tickNumber: 1531
      hasBeenProcessed: 0
    - inputs:
      - actionName: MovePlayer
        phase: 2
        expectedControlType: Vector2
        valueAsVector2: {x: 0, y: 1}
        valueAsAButton: 0
        currentControlType: 1
        targetFrame: 1392
      - actionName: MovePlayer
        phase: 3
        expectedControlType: Vector2
        valueAsVector2: {x: 0, y: 1}
        valueAsAButton: 0
        currentControlType: 1
        targetFrame: 1392
      frameWhereWasPerformed: 1392
      tickNumber: 1536
      hasBeenProcessed: 0
    - inputs:
      - actionName: MovePlayer
        phase: 3
        expectedControlType: Vector2
        valueAsVector2: {x: 0.707107, y: 0.707107}
        valueAsAButton: 0
        currentControlType: 1
        targetFrame: 1396
      frameWhereWasPerformed: 1396
      tickNumber: 1540
      hasBeenProcessed: 0
    - inputs:
      - actionName: MovePlayer
        phase: 3
        expectedControlType: Vector2
        valueAsVector2: {x: 1, y: 0}
        valueAsAButton: 0
        currentControlType: 1
        targetFrame: 1421
      frameWhereWasPerformed: 1421
      tickNumber: 1565
      hasBeenProcessed: 0
    - inputs:
      - actionName: MovePlayer
        phase: 3
        expectedControlType: Vector2
        valueAsVector2: {x: 0.707107, y: -0.707107}
        valueAsAButton: 0
        currentControlType: 1
        targetFrame: 1430
      frameWhereWasPerformed: 1430
      tickNumber: 1574
      hasBeenProcessed: 0
    - inputs:
      - actionName: MovePlayer
        phase: 3
        expectedControlType: Vector2
        valueAsVector2: {x: 0, y: -1}
        valueAsAButton: 0
        currentControlType: 1
        targetFrame: 1441
      frameWhereWasPerformed: 1441
      tickNumber: 1585
      hasBeenProcessed: 0
    - inputs:
      - actionName: MovePlayer
        phase: 3
        expectedControlType: Vector2
        valueAsVector2: {x: -0.707107, y: -0.707107}
        valueAsAButton: 0
        currentControlType: 1
        targetFrame: 1470
      frameWhereWasPerformed: 1470
      tickNumber: 1613
      hasBeenProcessed: 0
    - inputs:
      - actionName: MovePlayer
        phase: 3
        expectedControlType: Vector2
        valueAsVector2: {x: 0, y: -1}
        valueAsAButton: 0
        currentControlType: 1
        targetFrame: 1497
      frameWhereWasPerformed: 1497
      tickNumber: 1641
      hasBeenProcessed: 0
    - inputs:
      - actionName: MovePlayer
        phase: 4
        expectedControlType: Vector2
        valueAsVector2: {x: 0, y: 0}
        valueAsAButton: 0
        currentControlType: 1
        targetFrame: 1513
      frameWhereWasPerformed: 1513
      tickNumber: 1657
      hasBeenProcessed: 0
    - inputs:
      - actionName: MovePlayer
        phase: 2
        expectedControlType: Vector2
        valueAsVector2: {x: 0, y: 1}
        valueAsAButton: 0
        currentControlType: 1
        targetFrame: 1525
      - actionName: MovePlayer
        phase: 3
        expectedControlType: Vector2
        valueAsVector2: {x: 0, y: 1}
        valueAsAButton: 0
        currentControlType: 1
        targetFrame: 1525
      frameWhereWasPerformed: 1525
      tickNumber: 1669
      hasBeenProcessed: 0
    - inputs:
      - actionName: MovePlayer
        phase: 4
        expectedControlType: Vector2
        valueAsVector2: {x: 0, y: 0}
        valueAsAButton: 0
        currentControlType: 1
        targetFrame: 1612
      frameWhereWasPerformed: 1612
      tickNumber: 1756
      hasBeenProcessed: 0
    - inputs:
      - actionName: MovePlayer
        phase: 2
        expectedControlType: Vector2
        valueAsVector2: {x: 1, y: 0}
        valueAsAButton: 0
        currentControlType: 1
        targetFrame: 1631
      - actionName: MovePlayer
        phase: 3
        expectedControlType: Vector2
        valueAsVector2: {x: 1, y: 0}
        valueAsAButton: 0
        currentControlType: 1
        targetFrame: 1631
      frameWhereWasPerformed: 1631
      tickNumber: 1776
      hasBeenProcessed: 0
    - inputs:
      - actionName: MovePlayer
        phase: 4
        expectedControlType: Vector2
        valueAsVector2: {x: 0, y: 0}
        valueAsAButton: 0
        currentControlType: 1
        targetFrame: 1693
      - actionName: MovePlayer
        phase: 2
        expectedControlType: Vector2
        valueAsVector2: {x: -1, y: 0}
        valueAsAButton: 0
        currentControlType: 1
        targetFrame: 1693
      - actionName: MovePlayer
        phase: 3
        expectedControlType: Vector2
        valueAsVector2: {x: -1, y: 0}
        valueAsAButton: 0
        currentControlType: 1
        targetFrame: 1693
      frameWhereWasPerformed: 1693
      tickNumber: 1840
      hasBeenProcessed: 0
    - inputs:
      - actionName: MovePlayer
        phase: 4
        expectedControlType: Vector2
        valueAsVector2: {x: 0, y: 0}
        valueAsAButton: 0
        currentControlType: 1
        targetFrame: 1765
      frameWhereWasPerformed: 1765
      tickNumber: 1914
      hasBeenProcessed: 0
    - inputs:
      - actionName: MovePlayer
        phase: 2
        expectedControlType: Vector2
        valueAsVector2: {x: 1, y: 0}
        valueAsAButton: 0
        currentControlType: 1
        targetFrame: 1782
      - actionName: MovePlayer
        phase: 3
        expectedControlType: Vector2
        valueAsVector2: {x: 1, y: 0}
        valueAsAButton: 0
        currentControlType: 1
        targetFrame: 1782
      frameWhereWasPerformed: 1782
      tickNumber: 1930
      hasBeenProcessed: 0
    - inputs:
      - actionName: MovePlayer
        phase: 4
        expectedControlType: Vector2
        valueAsVector2: {x: 0, y: 0}
        valueAsAButton: 0
        currentControlType: 1
        targetFrame: 1785
      frameWhereWasPerformed: 1785
      tickNumber: 1934
      hasBeenProcessed: 0
